{
  "root": "libs/common/resource/core",
  "sourceRoot": "libs/common/resource/core/src",
  "targets": {
    "lint": {
      "executor": "@nrwl/linter:eslint",
      "outputs": ["{options.outputFile}"],
      "options": {
        "lintFilePatterns": ["libs/common/resource/core/**/*.ts"]
      }
    },
    "test": {
      "executor": "@nrwl/jest:jest",
      "outputs": ["coverage/libs/common/resource/core"],
      "options": {
        "jestConfig": "libs/common/resource/core/jest.config.js",
        "passWithNoTests": true
      }
    }
  },
  "tags": []
}
